Lab 4: Code showcase
…
Remove the 17th row and overwrite

Remove the row containing the tallest pirate (let’s say the data was entered incorrectly)

Challenge 3: Public safety spending

Suburban towns often spend a large fraction of their municipal budgets on public safety services (police, fire, and ambulance). A taxpayers’ group felt that tiny towns were likely to spend large amounts per person because they have such small financial bases. The group obtained data on the per-capita (per-person) spending on public safety for 29 suburban towns in a metropolitan area, as well as the population of each town in units of 1000 people. If you used 10000 thats fine 

They sent you the data in the file expenditure.xslx, which you can get from Canvas.

exp <- read_excel("expenditure copy.xlsx")
exp

## # A tibble: 29 × 2
##    Population Expend
##         <dbl>  <dbl>
##  1         14   140 
##  2         20   142 
##  3         22   165 
##  4         22   175 
##  5         24   143 
##  6         24   141 
##  7         26   142 
##  8         28   144 
##  9         29   144.
## 10         30   138 
## # … with 19 more rows
…
